<?xml version="1.0" encoding="utf-8"?>
<!-- Generator: Adobe Illustrator 23.1.1, SVG Export Plug-In . SVG Version: 6.00 Build 0)  -->
<svg version="1.1" id="Laag_1" xmlns="http://www.w3.org/2000/svg" xmlns:xlink="http://www.w3.org/1999/xlink" x="0px" y="0px"
	 viewBox="0 0 150 150" style="enable-background:new 0 0 150 150;" xml:space="preserve">
<style type="text/css">
	.st0{fill:#FFFFFF;}
</style>
<g>
	<path class="st0" d="M76.02,16.19H46.69c-4.75,0-8.61,3.85-8.61,8.61v29.33c0,4.75,3.85,8.61,8.61,8.61h29.33
		c4.75,0,8.61-3.85,8.61-8.61V24.8C84.63,20.04,80.78,16.19,76.02,16.19z M58.93,22.43c0-0.54,0.42-0.96,0.96-0.96h5.74
		c0.54,0,0.96,0.42,0.96,0.96v4.78c0,0.54-0.42,0.96-0.96,0.96h-5.74c-0.54,0-0.96-0.42-0.96-0.96V22.43z M70.4,54
		c0,0.54-0.42,0.96-0.96,0.96H56.06c-0.54,0-0.96-0.42-0.96-0.96v-4.78c0-0.54,0.42-0.96,0.96-0.96h2.87v-9.56h-2.87
		c-0.54,0-0.96-0.42-0.96-0.95v-4.78c0-0.54,0.42-0.96,0.96-0.96h9.57c0.54,0,0.96,0.42,0.96,0.96v15.3h2.87
		c0.54,0,0.96,0.42,0.96,0.96V54z"/>
</g>
<g>
	<g>
		<path class="st0" d="M139.13,83.47c-0.35-0.19-0.85-0.41-1.24-0.52c-2.33-0.65-6.86-1.66-6.86-1.66
			c-2.78-0.58-5.48,1.19-6.06,3.98l-5.21,25.11c-0.58,2.79,1.19,5.49,3.98,6.07l6.42,1.39c2.78,0.59,5.49-1.16,6.09-3.95l5.36-25.08
			c0.36-1.66-0.16-3.26-1.21-4.41C139.95,83.93,139.44,83.64,139.13,83.47z M130.82,112.36c-0.92,1.41-2.84,1.81-4.25,0.9
			c-1.41-0.92-1.82-2.84-0.9-4.25c0.92-1.41,2.84-1.82,4.25-0.9C131.33,109.03,131.74,110.96,130.82,112.36z"/>
		<g>
			<path class="st0" d="M98.01,73.46c-3.18-4.77-9.7-5.53-9.7-5.53c-6.11-0.36-9.65,0.25-12.28,1.36l0-0.03l-0.58,0.36
				c-3.02,1.92-8.08,5.13-15.74,5.93c-8,0.84-14.98,3.82-15.05,3.85c-3.06,1.77-3.21,5.24-3,5.81c0.09,0.19,0.32,0.67,1.57,0.7
				c0.42-0.03,1.35-0.07,2.72-0.17l0.49-0.03c22.21-1.62,31.35-1.02,33.72,2.19l-2.93,2.16c-0.94-1.28-7.01-2.43-30.53-0.72
				l-0.49,0.04c-1.65,0.12-2.79,0.19-3.14,0.18c-2.96-0.08-4.22-1.77-4.71-2.78c-0.34-0.72-0.46-1.86-0.31-3.14
				c-4.49-2.1-14.17-6.5-21.13-9.93c-8.71-4.29-9.57,4.92-9.57,4.92l2.98,1.34c-1.45,3.13,0.39,5.01,0.39,5.01
				c11.26,2.24,41.75,25.86,44.59,26.52c2.85,0.66,12.9-2.32,27.48-5.56c14.58-3.24,25.51,1.88,31.07,6.08l5.91-28.95
				C105.14,79.41,98.01,73.46,98.01,73.46z"/>
		</g>
	</g>
</g>
</svg>
